{
    "$schema": "https://docs.renovatebot.com/renovate-schema.json",
    "extends": [
        "config:base",
        "docker:pinDigests",
        ":semanticCommits",
        ":semanticCommitTypeAll(chore)",
        ":semanticCommitScope(deps)"
    ],
    "enabled": true,
    "dependencyDashboard": false,
    "separateMajorMinor": true,
    "separateMultipleMajor": false,
    "separateMinorPatch": true,
    "prHourlyLimit": 5,
    "prConcurrentLimit": 10,
    "labels": [
        "depUpdate"
    ],
    "updateLockFiles": true
}

