{
    "$schema": "https://docs.renovatebot.com/renovate-schema.json",
    "extends": [
        "gitlab>bosi/renovate-configs//configs/_base",
        ":automergePatch",
        ":automergeMinor",
        ":automergeLinters",
        ":automergeTesters",
        ":automergeTypes",
        ":automergeDigest"
    ],
    "automergeType": "pr",
    "platformAutomerge": true
}

